Report on Movielens Rating Predictions
…
rm(dl, ratings, movies, test_index, temp, movielens, removed)

1.3 Tidy Data

### Additional libraries to install:
library(lubridate)
library(stringr)
library(ggplot2)

### We can check that the data is in tidy format with the as_tibble function:
edx%>%as_tibble()

## # A tibble: 9,000,055 x 6
##    userId movieId rating timestamp title               genres              
##     <int>   <dbl>  <dbl>     <int> <chr>               <chr>               
##  1      1     122      5 838985046 Boomerang (1992)    Comedy|Romance      
##  2      1     185      5 838983525 Net, The (1995)     Action|Crime|Thrill
##  3      1     292      5 838983421 Outbreak (1995)     Action|Drama|Sci-Fi
##  4      1     316      5 838983392 Stargate (1994)     Action|Adventure|Sc
##  5      1     329      5 838983392 Star Trek: Generat Action|Adventure|Dr
##  6      1     355      5 838984474 Flintstones, The ( Children|Comedy|Fan
##  7      1     356      5 838983653 Forrest Gump (1994) Comedy|Drama|Romanc
##  8      1     362      5 838984885 Jungle Book, The ( Adventure|Children|
##  9      1     364      5 838983707 Lion King, The (19 Adventure|Animation
## 10      1     370      5 838984596 Naked Gun 33 1/3:  Action|Comedy       
## #  with 9,000,045 more rows
…
